1.000000 1.426032 3.104798 2.501921 2.757245 1.409870 1.816253 2.747142 1.931017 1.110420 
1.000000 1.197990 3.260564 2.667498 2.743043 1.211303 1.778981 2.913969 1.642914 0.988978 
1.000000 1.149574 4.342259 3.486325 4.234172 1.280129 2.074872 5.649369 2.347506 1.075875 
1.000000 1.250409 4.539827 3.440551 3.816314 1.299100 2.158145 3.556634 1.827845 1.011345 
1.000000 1.336977 4.390560 3.554967 3.529387 1.370127 2.166730 4.033374 2.069343 1.171477 
1.000000 1.237985 2.419986 2.221735 2.435651 1.181012 1.656439 2.486833 1.533501 1.002651 
1.000000 1.200897 4.526146 4.037758 3.303564 1.328243 2.297317 3.529255 2.009868 1.158543 
1.000000 0.859652 2.468282 1.926908 2.303013 1.041043 1.506278 2.512454 1.796174 0.951861 
1.000000 1.496954 3.690702 3.020478 4.259708 1.733354 2.438245 4.164315 2.869156 1.482285 
1.000000 1.310334 4.412690 3.365618 3.945375 1.363968 2.207397 4.078458 1.966554 1.044334 
1.000000 1.261444 4.519462 3.431722 3.425712 1.263760 1.995836 3.789398 1.792282 0.985936 
1.000000 1.470551 4.197750 3.497806 2.999168 1.368423 1.937853 0.967405 0.804401 0.728952 
1.000000 1.342505 3.806976 2.821641 3.689957 1.369783 2.042254 4.236239 2.140782 1.023384 
1.000000 1.006312 2.671010 2.000445 2.354562 1.018904 1.442677 2.490960 1.401444 0.842859 
1.000000 1.175758 3.247553 2.642918 3.121763 1.264759 1.813715 3.663555 2.155486 1.026691 
1.000000 0.982695 2.093530 1.734728 2.126177 1.009453 1.383120 2.270596 1.421948 0.873958 
1.000000 1.517167 3.804281 3.414079 3.693236 1.580547 2.519090 4.488790 2.680749 1.320451 
1.000000 1.517167 3.804281 3.414079 3.693236 1.580547 2.519090 4.488790 2.680749 1.320451 
1.000000 1.715477 5.122067 5.455718 3.889257 1.529387 2.839133 4.632075 3.095326 1.119457 
1.000000 1.075047 3.509765 2.820513 2.614453 1.172480 1.874544 2.793919 1.673580 0.983103 
1.000000 1.145066 2.403767 2.199817 2.532659 1.209750 1.753461 2.674472 1.527033 1.006857 
1.000000 1.327854 4.577492 3.847921 4.240556 1.403324 2.365029 5.155453 2.441160 1.178801 
1.000000 1.636393 5.905527 4.846719 5.373605 1.586515 2.626446 6.673923 2.824623 1.353924 
1.000000 1.541130 6.708589 5.975177 5.200753 1.698998 2.678598 6.919645 3.273820 1.606090 
1.000000 1.208590 3.844487 3.191199 3.272161 1.300305 1.849986 4.315886 2.315414 1.223537 
1.000000 1.592571 5.562335 4.614402 5.045561 1.686802 3.015048 6.236281 3.037189 1.327584  
1.000000 1.191686 3.682662 2.868015 2.798810 1.222086 1.821950 2.859215 1.654414 0.984779 
1.000000 1.293850 4.198045 3.620856 3.426922 1.478734 2.416355 3.571202 2.223634 1.239085 
2.000000 1.571781 4.156402 3.092006 3.357409 1.470247 1.929282 3.421328 2.139096 1.073203 
2.000000 1.467480 3.786775 2.864409 3.381493 1.383988 1.874417 3.569387 1.919343 1.001355 
2.000000 1.453953 3.207197 2.573685 2.752463 1.415841 1.607245 3.562642 2.242721 1.160229 
2.000000 1.329067 3.711690 2.891571 3.388648 1.393056 2.016923 3.658654 1.886040 1.059014 
2.000000 1.184576 3.383161 2.346402 3.085702 1.226767 1.694844 3.511835 1.800826 0.973684 
2.000000 1.024641 2.003437 1.679900 2.060318 1.024936 1.329941 2.246512 1.348602 0.850367 
2.000000 1.372169 4.410015 3.273112 3.471028 1.418718 2.052257 3.793150 2.216946 1.106615 
2.000000 1.039249 3.533562 2.907502 3.392542 1.261702 2.072047 3.986921 2.601089 1.157804 
2.000000 1.717304 5.303189 4.246682 4.055553 1.700177 2.340108 3.907956 2.590561 1.185669 
2.000000 1.496986 4.885765 3.646576 4.239491 1.477981 2.215798 4.658070 2.286800 1.126598 
2.000000 1.137292 2.011478 1.556412 2.112691 1.101810 1.303209 2.084770 1.344478 0.843954 
2.000000 1.346551 2.777195 2.148343 1.000955 0.807336 0.679803 2.835760 1.599640 0.944492 
2.000000 1.456841 4.737941 3.230846 4.439884 1.406001 2.102331 5.480591 2.426546 0.945899 
2.000000 1.277837 4.907661 3.506025 4.386669 1.287971 2.164646 5.150544 2.047374 0.975177  
2.000000 0.740921 3.320033 2.696555 2.488900 0.975054 1.782207 3.378539 1.820776 0.981771 
2.000000 1.184228 2.702619 2.107246 2.601500 1.214539 1.577172 2.632435 1.632145 0.920784 
2.000000 1.952856 11.716751 10.319457 8.189395 2.259373 5.196264 12.104075 5.598833 1.916747 
2.000000 2.061048 5.826244 6.501557 4.740943 1.966964 4.233954 5.548801 3.957443 1.557162 
2.000000 1.256258 3.550512 2.719665 3.194081 1.257570 1.837479 3.564899 1.892647 0.990268 
2.000000 1.418748 4.317651 3.607980 4.004254 1.497436 2.415276 4.235730 2.028098 1.107091 
2.000000 1.479333 4.067928 3.050289 4.558805 1.640604 2.463484 5.614416 2.962340 1.226481 
2.000000 1.781112 2.461707 2.058851 3.937096 1.818659 2.230756 4.395462 2.617635 1.461760 
2.000000 1.563960 6.719031 5.172458 5.729772 1.670248 2.375194 6.970999 3.000093 1.447324 
2.000000 1.334242 3.927074 3.280920 3.597021 1.417605 1.948754 4.344602 2.446746 1.263937 
2.000000 1.668535 5.729017 3.998825 6.206835 1.712954 2.854737 6.719600 2.766389 1.070743 
2.000000 1.370419 2.396050 2.051691 2.457093 1.221540 1.555325 2.541426 1.591300 0.969104 
2.000000 1.391532 4.325874 3.415932 4.305799 1.464625 2.303674 4.786036 2.469582 1.082327 
3.000000 1.842418 4.725845 3.146826 4.136768 1.643043 1.992128 4.122549 2.550640 1.098239 
3.000000 1.437676 2.456050 1.898702 2.640260 1.296524 1.462358 2.816708 1.684724 0.945908 
3.000000 1.622046 3.733446 2.803598 1.235590 1.045077 0.781653 1.235590 1.045077 0.781653 
3.000000 1.783973 7.343097 5.200403 6.369675 1.773530 2.740236 7.420878 2.867298 1.163121 
3.000000 1.683335 7.414661 4.477668 6.428643 1.741951 2.659299 6.532451 2.779791 1.192026 
3.000000 1.587852 5.048549 3.241784 4.709309 1.571443 2.187144 5.537921 2.551695 1.143375 
3.000000 1.547459 4.407277 3.050344 3.975120 1.661531 2.054104 4.127762 2.502230 1.164310 
3.000000 1.417194 5.292181 3.666856 4.790016 1.999149 2.914561 5.336644 3.860562 1.627011 
3.000000 1.730356 7.950702 5.294875 6.226954 1.784831 2.925706 7.860380 3.194779 1.299459 
3.000000 1.683873 5.596136 3.485173 4.427951 1.625859 2.175309 4.841653 2.431025 1.116769 
3.000000 1.909586 7.039650 4.996879 4.999443 1.822639 2.561477 6.207284 2.751888 1.283467 
3.000000 1.482430 3.744663 3.285966 3.136742 1.551360 2.285937 3.663032 2.164289 1.303448 
3.000000 1.659904 7.644345 4.587271 5.965726 1.647533 2.608049 6.765194 2.777248 1.165756 
3.000000 1.138223 5.377112 4.299944 3.637019 1.361965 2.395345 5.568546 2.658896 1.257414 
3.000000 1.228749 2.567218 1.886673 2.540827 1.212741 1.437608 2.653455 1.648346 0.920354 
3.000000 2.081488 14.041298 13.100281 10.263968 2.803050 8.189449 10.784034 6.006580 2.345775 
3.000000 2.240354 11.164503 9.647397 6.164865 2.112189 4.197765 7.354289 5.133103 1.581864 
3.000000 1.085563 3.465400 2.772291 2.784401 1.230540 1.958865 2.859718 1.758348 1.024408  
3.000000 1.491767 4.714902 3.504642 4.291891 1.553207 2.300716 4.527513 2.102247 1.063719 
3.000000 1.712661 6.124287 4.445934 6.723314 1.885604 2.978935 7.022694 3.059677 1.189875  
3.000000 2.081730 10.434187 8.271807 8.270117 2.041672 3.139074 12.264293 4.136442 1.579562  
3.000000 2.154711 15.195111 11.450816 10.600049 2.516012 3.840364 13.489978 5.215612 1.990572 
3.000000 1.363420 4.908223 4.575519 4.174890 1.627094 2.597037 5.235262 2.986073 1.552230 
3.000000 1.650232 5.440816 4.641266 4.702590 1.809121 3.136273 5.210665 2.794759 1.538970 
3.000000 1.554771 3.584912 2.537531 3.464049 1.497305 1.865112 3.540471 2.072639 1.088990 
3.000000 1.535079 4.247219 3.900208 4.258519 1.739700 2.830116 4.646260 2.807289 1.442157 
4.000000 1.015994 1.825163 1.211199 2.075685 0.854777 0.939452 2.074555 1.134156 0.570071 
4.000000 0.986799 1.885673 1.312283 2.176548 0.855727 1.031702 2.281047 1.151569 0.613947 
4.000000 0.923257 2.214118 1.287783 3.337802 0.851180 0.999823 3.544512 1.360709 0.551876 
4.000000 1.151493 3.647938 2.257655 4.008961 1.030277 1.504913 4.386746 1.554830 0.686956 
4.000000 1.005034 2.125533 1.448153 2.458221 0.879519 1.106904 2.700534 1.219448 0.629832 
4.000000 1.051564 2.345583 1.456399 2.764241 0.907535 1.126906 3.009695 1.272991 0.621408 
4.000000 0.950140 1.757450 1.241534 2.089554 0.820273 1.005963 2.179934 1.108398 0.601238 
4.000000 0.882387 1.842867 1.232730 2.149735 0.886146 0.970870 2.224248 1.381958 0.629809 
4.000000 1.093217 2.322154 1.506822 3.685279 1.030465 1.232359 3.551434 1.868648 0.734438 
4.000000 0.956068 1.253117 0.955657 1.816602 0.766213 0.842808 1.764539 0.907272 0.522414 
4.000000 1.040258 2.018216 1.378656 2.260917 0.877699 1.058023 2.454772 1.171840 0.619241 
4.000000 0.981612 1.864779 1.284597 2.237809 0.817093 0.984846 2.386003 1.085119 0.564851 
4.000000 1.094804 2.677809 1.682844 3.176993 0.804764 1.032219 3.575315 1.280917 0.483203 
4.000000 0.959062 1.697570 1.268645 2.157190 0.817126 1.001718 2.024513 0.997924 0.554550 
4.000000 0.741014 2.150655 1.576859 2.113742 0.737206 1.007645 2.404023 1.211814 0.581993 
4.000000 0.898649 1.435276 0.999858 1.875220 0.743534 0.800983 1.806704 0.942703 0.500470 
4.000000 1.336461 3.326027 2.314973 3.613860 1.133758 1.517657 4.240969 1.924639 0.629915 
4.000000 1.036451 1.710052 1.223887 1.912264 0.881544 0.961226 1.925676 1.171298 0.588078 
4.000000 0.836621 1.331749 0.916691 1.816584 0.696350 0.800401 1.722484 0.891339 0.482059 
4.000000 1.008806 1.758020 1.335077 2.219369 0.893910 1.105455 2.222867 1.116709 0.625062 
4.000000 0.986379 2.240785 1.355639 2.791497 0.815563 0.966739 3.045699 1.207596 0.510062 
4.000000 0.848365 1.991213 1.125068 2.577673 0.738553 0.801023 2.726755 1.096282 0.485143 
4.000000 0.932142 2.052360 1.362986 2.409661 0.832947 0.940260 2.662368 1.242652 0.653359 
4.000000 0.862727 1.936970 1.292379 2.257945 0.800827 0.917085 2.339796 1.165411 0.601906 
4.000000 1.126761 2.423479 1.384101 3.270690 0.855102 0.977464 3.466942 1.252759 0.480630 
4.000000 0.925031 1.552713 1.023827 2.057225 0.789482 0.882758 2.027229 1.020214 0.514929 
5.000000 1.437228 4.627269 2.952936 4.043913 1.279667 1.746490 4.438829 2.095374 0.857269 
5.000000 1.090592 2.214911 1.716226 2.421864 1.019087 1.306483 2.469437 1.290321 0.741219 
5.000000 1.209731 3.124748 2.098935 3.483728 1.095100 1.348532 4.426197 1.856779 0.816811 
5.000000 1.130311 2.547932 1.971117 2.967973 1.078991 1.537961 3.040084 1.443278 0.787411 
5.000000 1.136136 3.231748 2.094308 3.244558 1.060149 1.449530 3.828573 1.623952 0.796398 
5.000000 1.218104 3.217228 2.143809 3.134713 1.143486 1.530182 3.558745 1.638186 0.834646 
5.000000 1.165082 3.097647 2.227816 3.057183 1.130486 1.544820 3.366685 1.651985 0.854984 
5.000000 1.030801 2.493225 1.707810 2.634526 1.066307 1.295702 2.770736 1.796836 0.848916 
5.000000 1.479431 3.051925 2.278712 1.809796 1.591599 1.249270 1.809796 1.591599 1.249270 
5.000000 1.021775 1.916173 1.527269 2.217918 0.955678 1.227662 2.293685 1.237190 0.738043 
5.000000 1.174874 2.817993 2.209787 2.956671 1.046998 1.466483 3.320248 1.491719 0.791695 
5.000000 1.188903 2.481102 2.010808 2.596424 1.020777 1.409673 2.672097 1.321497 0.741757 
5.000000 1.146218 3.297556 2.272723 3.265129 0.927488 1.270656 4.043020 1.451495 0.607063 
5.000000 1.215031 4.026023 2.515465 3.842314 1.105433 1.656023 3.854037 1.522488 0.740720 
5.000000 1.093588 2.188375 1.552239 2.307875 0.999196 1.180682 2.351327 1.338540 0.722515 
5.000000 1.408950 3.995253 3.207369 4.397662 1.262586 2.029365 5.623572 2.503656 0.775562 
5.000000 1.598785 4.478270 3.204500 3.539513 1.265968 1.617933 4.273236 2.634244 0.721651 
5.000000 1.205858 3.163054 2.287894 3.398936 1.058323 1.540601 3.975773 1.669382 0.745646 
5.000000 1.008160 1.850709 1.462716 2.186641 0.919303 1.180690 2.229783 1.157552 0.669801 
5.000000 1.163243 2.734455 1.861333 3.497193 1.049349 1.362834 3.792133 1.649620 0.676011 
5.000000 0.970587 2.686813 1.817549 2.786596 0.842959 1.021595 3.184105 1.379277 0.603149 
5.000000 1.276657 3.849080 2.792943 3.635416 1.231806 1.495838 4.685876 2.143397 1.055300 
5.000000 0.954913 2.329332 1.682739 2.602491 0.913267 1.101402 2.824559 1.432397 0.735472 
5.000000 1.277132 3.454289 2.256745 3.978591 1.018149 1.440614 4.687856 1.724639 0.639133 
5.000000 1.088372 1.631563 1.332606 1.904365 0.926370 1.081072 1.907072 1.128256 0.697930 
5.000000 0.980671 1.872593 1.378046 2.356208 0.891064 1.112960 2.475285 1.273644 0.635151 
6.000000 0.939898 1.974526 1.477036 1.965791 0.895305 1.149856 1.936404 1.189664 0.691342 
6.000000 0.937856 2.260914 1.780173 2.183845 0.910065 1.281681 2.275899 1.227728 0.723181 
6.000000 1.101605 3.166950 2.445515 3.357392 1.180989 1.694531 4.034922 1.919470 0.936174 
6.000000 1.045499 3.364864 2.483870 3.259811 1.088297 1.745902 3.281539 1.514018 0.823079 
6.000000 0.978086 2.322157 1.918066 2.412128 1.002441 1.487836 2.562799 1.349479 0.813070 
6.000000 0.993481 2.423684 1.878545 2.284331 0.976854 1.401054 2.570168 1.350745 0.804688 
6.000000 0.932037 2.280416 1.829646 2.235265 0.950504 1.377349 2.399489 1.336883 0.791146 
6.000000 0.770328 1.830090 1.431212 1.937214 0.879787 1.144156 1.964078 1.350514 0.741440 
6.000000 1.004205 3.552254 2.648017 3.653136 0.960316 1.600693 3.970003 1.954047 0.711103 
6.000000 0.928046 2.329699 1.724665 2.461387 0.929208 1.317806 2.403072 1.236557 0.711803 
6.000000 0.939308 2.392253 1.907690 2.534494 0.925535 1.416484 2.746925 1.290552 0.749590 
6.000000 0.969990 2.205530 1.811603 2.297482 0.934956 1.365312 2.398636 1.224039 0.749313 
6.000000 0.999346 2.937336 2.349537 2.736551 0.884739 1.363227 3.354310 1.365469 0.651169 
6.000000 1.020593 3.598558 2.522532 3.022138 0.984585 1.550949 3.101448 1.366229 0.738851 
6.000000 0.706409 1.887040 1.328682 1.852198 0.715131 0.948343 2.175830 1.073144 0.521219 
6.000000 1.142537 3.568174 2.705892 3.112722 1.036038 1.424705 3.564215 1.745774 0.683124 
6.000000 1.068294 2.720918 2.568209 2.701953 1.003520 1.603461 3.230907 1.758916 0.760353 
6.000000 1.178312 3.409048 2.315787 2.501730 1.014381 1.310628 3.105027 2.094236 0.625190 
6.000000 0.951047 2.005838 1.600983 2.090687 0.940854 1.310594 2.118845 1.240178 0.750818 
6.000000 0.920930 1.925200 1.476685 2.033608 0.928780 1.259382 2.075181 1.197908 0.758064 
6.000000 0.860838 2.014303 1.431974 2.433113 0.846079 1.072917 2.325669 1.139213 0.574289 
6.000000 0.921336 2.311434 1.805618 2.767220 0.920284 1.247857 2.990999 1.373054 0.764008 
6.000000 0.925868 2.355112 1.779363 2.327089 0.964784 1.216882 2.437708 1.411423 0.824327 
6.000000 0.826835 2.386553 1.801051 2.391318 0.888454 1.202288 2.592326 1.361735 0.770512 
6.000000 0.935171 2.406966 1.746270 2.674136 0.847164 1.232392 2.981613 1.228554 0.620004 
6.000000 0.944276 2.061951 1.728263 1.820675 0.860843 1.157029 1.889053 1.114000 0.708505 
6.000000 0.900048 1.951638 1.466131 2.118561 0.883732 1.189815 2.072539 1.180662 0.657583 
7.000000 0.670025 0.891672 0.730585 1.059292 0.567294 0.642564 1.036420 0.667343 0.462454 
7.000000 0.657337 0.822541 0.708833 1.037645 0.539734 0.616477 1.050683 0.628772 0.449792 
7.000000 0.581214 0.938027 0.678885 1.245165 0.521283 0.560945 1.337943 0.686655 0.375922 
7.000000 0.581771 0.426762 0.360981 0.581771 0.426762 0.360981 0.581771 0.426762 0.360981 
7.000000 0.626230 0.868295 0.698818 1.073026 0.530674 0.619448 1.076941 0.636129 0.431757 
7.000000 0.660582 0.848782 0.698761 1.058506 0.543802 0.614539 1.091858 0.642046 0.446547 
7.000000 0.651625 0.489556 0.433367 0.651625 0.489556 0.433367 0.651625 0.489556 0.433367 
7.000000 0.514919 0.712999 0.539091 0.907239 0.460770 0.457315 0.884212 0.583933 0.343343 
7.000000 0.555454 0.651501 0.517569 0.924936 0.456814 0.473983 0.857273 0.555699 0.340925 
7.000000 0.675137 1.065609 0.884831 1.323699 0.582237 0.742046 1.341371 0.722644 0.467348 
7.000000 0.597621 0.973689 0.779206 1.185947 0.500998 0.630853 1.252546 0.643695 0.395853 
7.000000 0.712191 1.062370 0.891423 1.310531 0.620607 0.762197 1.320054 0.737433 0.489122 
7.000000 0.596715 1.071273 0.780929 1.415013 0.504463 0.644004 1.504832 0.654094 0.357790 
7.000000 0.647507 1.067274 0.879118 1.338064 0.560014 0.752436 1.365631 0.709782 0.456254 
7.000000 0.585334 1.040910 0.775699 1.285929 0.535061 0.620695 1.305119 0.729228 0.393183 
7.000000 0.693098 1.013478 0.864207 1.244265 0.604050 0.732588 1.228393 0.725967 0.474453 
7.000000 0.690113 1.100684 0.930614 1.267245 0.595975 0.728748 1.333189 0.815617 0.444232 
7.000000 0.678580 1.002160 0.770859 1.184081 0.589003 0.665453 1.142298 0.725953 0.438925 
7.000000 0.643838 0.990766 0.794876 1.184069 0.546811 0.677898 1.240856 0.699811 0.455538 
7.000000 0.698654 1.071105 0.915347 1.351622 0.600809 0.774177 1.393381 0.731181 0.480307 
7.000000 0.561247 1.088728 0.773160 1.440017 0.491869 0.614630 1.484562 0.668586 0.345295 
7.000000 0.493133 0.958307 0.668388 1.178067 0.453583 0.515757 1.270581 0.624419 0.344570 
7.000000 0.560799 1.179661 0.882983 1.310402 0.544171 0.650576 1.317577 0.752625 0.448569 
7.000000 0.469180 0.834918 0.660715 0.948480 0.448672 0.514533 0.933395 0.592399 0.384447 
7.000000 0.645594 1.041271 0.790535 1.301144 0.545051 0.676326 1.326432 0.689465 0.424887 
7.000000 0.691197 1.158343 0.934503 1.197706 0.556318 0.687851 1.277667 0.712028 0.463082 
7.000000 0.581120 0.845046 0.630472 1.127460 0.496894 0.574185 1.070309 0.595080 0.364026 
8.000000 0.821001 1.523380 1.215858 1.643828 0.775512 1.001654 1.726411 1.047459 0.632391 
8.000000 0.787294 1.544473 1.267039 1.821133 0.738727 1.044083 1.862284 0.975753 0.598736 
8.000000 0.723785 1.686426 1.216715 2.262435 0.735817 0.986614 2.427324 1.115671 0.569018 
8.000000 0.851978 2.103030 1.685731 2.624290 0.837208 1.286690 2.798107 1.165401 0.649121 
8.000000 0.785973 1.428049 1.196261 1.648008 0.743025 0.997568 1.630979 0.937674 0.606461 
8.000000 0.845274 1.808785 1.390450 1.920828 0.812358 1.104773 2.079654 1.098781 0.652298 
8.000000 0.823291 1.678853 1.331227 1.796437 0.790003 1.080063 1.867851 1.056711 0.646335 
8.000000 0.672494 1.512899 1.126203 1.677851 0.684548 0.873262 1.821311 1.150934 0.550433 
8.000000 0.709356 1.438148 1.210112 1.994697 0.656175 0.935290 1.730614 1.017030 0.494982 
8.000000 0.781215 1.366436 1.168677 1.558591 0.723919 0.949433 1.494010 0.866877 0.574307 
8.000000 0.769123 1.459105 1.149073 1.626296 0.709900 0.946457 1.678735 0.925682 0.573131 
8.000000 0.813087 1.642126 1.295320 1.838579 0.767229 1.063851 1.902688 1.022711 0.625391
8.000000 0.751598 1.811068 1.286863 2.131104 0.699215 0.989673 2.309786 0.971116 0.498989 
8.000000 0.810856 1.716347 1.365707 1.916803 0.763702 1.100055 1.821976 0.961688 0.587055 
8.000000 0.825553 1.605701 1.309715 1.979564 0.760374 0.962717 1.902369 1.068436 0.525182 
8.000000 0.912062 2.084065 1.519960 2.197024 0.859387 1.111529 2.271367 1.311639 0.599700 
8.000000 0.818664 1.417698 1.131090 1.599049 0.753824 0.952064 1.607409 1.024975 0.592519 
8.000000 0.782291 1.356995 1.207697 1.613604 0.729890 0.999495 1.575093 0.907339 0.584797 
8.000000 0.701298 1.722200 1.251832 2.116521 0.676594 0.919109 2.212110 0.975077 0.495626 
8.000000 0.651971 1.687132 1.170146 2.115432 0.644685 0.845057 2.080909 0.913320 0.456153 
8.000000 0.716497 1.771987 1.326868 1.994215 0.725703 0.909815 1.954149 1.049639 0.602920 
8.000000 0.600707 1.606182 1.155231 1.719086 0.645909 0.821679 1.667961 0.920875 0.516824 
8.000000 0.808316 1.898087 1.284092 2.193705 0.693113 0.949507 2.374828 0.962781 0.464604 
8.000000 0.822558 1.621893 1.341933 1.600007 0.729786 0.958328 1.669293 0.947289 0.610449 
8.000000 0.702639 1.303826 0.986759 1.642583 0.671386 0.872711 1.553707 0.879705 0.500251
9.000000 0.879393 1.376356 0.918842 1.766298 0.707134 0.767620 1.778506 0.924527 0.478134 
9.000000 0.947199 2.024497 1.274260 3.007883 0.780163 0.973641 3.249966 1.101235 0.483227 
9.000000 0.821009 1.366560 0.901984 1.988035 0.670579 0.790556 1.846740 0.836320 0.436746 
9.000000 0.873039 1.397515 0.966955 1.889866 0.695042 0.810423 1.933275 0.888882 0.476043 
9.000000 0.877849 1.500876 1.037482 1.940805 0.710066 0.823767 2.017507 0.947554 0.492996 
9.000000 0.711512 1.395494 0.842365 1.960910 0.642665 0.661821 1.963324 1.028777 0.401464 
9.000000 0.698433 1.260456 0.771795 2.313380 0.552934 0.639080 1.807843 0.838353 0.301853 
9.000000 0.872950 1.488479 0.992424 1.997854 0.689060 0.808394 2.007110 0.893528 0.453217 
9.000000 0.856692 1.507549 0.970818 2.022400 0.658527 0.769043 2.082641 0.880710 0.431461 
9.000000 0.879128 1.457630 0.957392 1.946700 0.690311 0.779596 2.006548 0.899154 0.456219 
9.000000 0.793563 1.375837 0.844032 2.165489 0.573699 0.647343 2.218661 0.742992 0.315080 
9.000000 0.869030 1.575225 1.023694 2.115706 0.706120 0.861449 2.148161 0.929834 0.474898  
9.000000 0.814968 1.400062 0.809312 2.002795 0.618891 0.590430 1.867322 0.832890 0.310038 
9.000000 0.962439 1.827314 1.023145 2.298326 0.763453 0.769399 2.359192 1.160177 0.413012 
9.000000 0.917822 1.635522 0.974936 1.794084 0.670909 0.649225 2.001430 1.214849 0.330264 
9.000000 0.829096 1.279055 0.872010 1.826120 0.671338 0.765925 1.747280 0.862709 0.455487 
9.000000 0.712130 1.428375 0.828735 2.245793 0.554630 0.608796 2.238538 0.781618 0.313499 
9.000000 0.869899 1.763873 1.146522 2.634672 0.700850 0.792815 2.690941 0.993599 0.452621 
9.000000 0.762768 1.570777 1.000029 2.010211 0.649550 0.705780 1.976991 0.903632 0.446246 
9.000000 0.695536 1.570330 0.961074 2.005322 0.604974 0.709463 1.923141 0.874852 0.427241 
9.000000 0.821341 1.532186 0.910486 2.394513 0.575887 0.671632 2.538194 0.784960 0.326212  
9.000000 0.784163 1.242657 0.810168 1.857699 0.629705 0.694258 1.823210 0.844753 0.391059 
10.000000 0.874276 1.055571 0.584233 1.823586 0.554911 0.522382 1.699306 0.701450 0.308902 
10.000000 0.902143 1.135419 0.640575 2.062232 0.554558 0.544678 2.034401 0.717935 0.314957 
10.000000 0.889428 1.269683 0.579124 2.836429 0.570469 0.475139 2.944451 0.834253 0.271545 
10.000000 0.922216 1.310163 0.704260 2.430937 0.559536 0.571643 2.273185 0.727359 0.297266 
10.000000 0.882917 1.131266 0.654260 2.126944 0.563965 0.581077 2.131263 0.754930 0.337584 
10.000000 0.929270 1.182767 0.671030 2.064577 0.562102 0.555622 2.122872 0.734518 0.325418 
10.000000 0.896340 1.209030 0.678449 2.054761 0.571095 0.566904 2.055985 0.746400 0.329914 
10.000000 0.767035 1.061845 0.649275 1.858799 0.529858 0.513236 1.874850 0.798433 0.321449 
10.000000 0.852067 1.229050 0.633968 2.863335 0.485628 0.474792 2.482601 0.789241 0.230807 
10.000000 0.910198 1.094642 0.671768 1.921137 0.564360 0.549468 1.943722 0.704969 0.329040 
10.000000 0.934969 1.234304 0.703606 2.086400 0.571831 0.584977 2.238865 0.761552 0.342336 
10.000000 0.906017 1.121233 0.696032 1.921468 0.561843 0.566221 1.811874 0.673627 0.323322 
10.000000 0.828752 1.252122 0.635050 2.266484 0.484646 0.432173 2.314751 0.693222 0.223820 
10.000000 0.924800 1.197642 0.684064 2.024666 0.618281 0.584299 2.009616 0.838253 0.364187 
10.000000 0.928303 1.224171 0.712781 2.227774 0.548710 0.542098 2.207015 0.700344 0.293717 
10.000000 0.819993 1.209303 0.647439 2.465531 0.457017 0.472277 2.523203 0.643393 0.237864 
10.000000 0.940037 1.390023 0.731265 2.710398 0.529936 0.495701 2.760517 0.749136 0.287130 
10.000000 0.806679 1.183445 0.683070 2.220936 0.500300 0.490847 2.211857 0.720873 0.312805 
10.000000 0.751795 1.086121 0.631384 2.180052 0.478764 0.467706 1.956085 0.660164 0.300817 
10.000000 0.991129 1.415412 0.671114 3.005913 0.477830 0.480176 3.232535 0.707445 0.226790 
10.000000 0.963700 1.247255 0.757071 1.961905 0.572981 0.554056 2.014153 0.721469 0.325707 
11.000000 0.874996 1.259077 0.633437 1.769927 0.659002 0.542759 1.694254 0.826552 0.325050 
11.000000 0.834704 1.228308 0.571745 1.946832 0.598270 0.492876 1.957533 0.788496 0.283487 
11.000000 0.815790 1.391143 0.573817 2.327796 0.579673 0.479218 2.245994 0.795035 0.245617 
11.000000 0.884217 1.403458 0.706206 2.027800 0.654736 0.575657 2.119008 0.882017 0.338865 
11.000000 0.863981 1.341039 0.658876 1.936189 0.639392 0.538204 1.977310 0.853452 0.317633 
11.000000 0.710775 1.239524 0.601862 1.815356 0.573441 0.469790 1.836915 0.891613 0.308282 
11.000000 0.894546 1.762489 0.733729 3.181912 0.651690 0.537386 2.812797 1.120916 0.257629  
11.000000 0.817240 1.338949 0.477908 1.900083 0.505167 0.349063 2.131012 0.718941 0.195965 
11.000000 0.820482 1.369395 0.546154 2.124307 0.535695 0.394255 2.138283 0.712018 0.204668 
11.000000 0.891404 1.408898 0.683804 1.968690 0.646190 0.554240 2.189361 0.880611 0.333498 
11.000000 0.919001 1.533241 0.729843 2.184019 0.670625 0.587485 2.194499 0.873254 0.324195 
11.000000 0.838567 1.209982 0.570589 1.810509 0.636155 0.497626 1.737909 0.840886 0.307249 
11.000000 0.896403 1.320417 0.648055 1.752016 0.688571 0.541802 1.728849 0.889575 0.332654 
11.000000 0.854700 1.203820 0.624518 1.859054 0.671103 0.564926 1.733939 0.847872 0.346619 
11.000000 0.833197 1.389213 0.676337 1.926376 0.619163 0.533154 2.033141 0.840658 0.308885 
11.000000 0.877294 1.597224 0.681462 2.462210 0.632741 0.494923 2.623840 0.898446 0.295045 
11.000000 0.843356 1.564417 0.777667 2.161175 0.631803 0.545445 2.269490 0.927342 0.352423 
11.000000 0.866578 1.442946 0.677601 2.484044 0.506163 0.477931 2.611075 0.713011 0.228939 
11.000000 0.974313 1.858655 0.883495 2.084847 0.695156 0.610384 2.339715 0.951306 0.357380 
12.000000 0.562471 1.162524 0.685438 1.628393 0.483782 0.540553 1.565821 0.642934 0.280477 
12.000000 0.630328 1.120823 0.718999 1.567464 0.537033 0.628488 1.607277 0.724957 0.353235 
12.000000 0.573096 1.121800 0.685292 1.451657 0.478757 0.522408 1.454186 0.613212 0.275632 
12.000000 0.516439 0.784798 0.499356 1.030246 0.399318 0.403007 1.043419 0.501781 0.244606 
12.000000 0.654429 1.010442 0.685132 1.286158 0.545166 0.588864 1.348745 0.681283 0.377711 
12.000000 0.619565 1.019756 0.693888 1.339440 0.522941 0.589700 1.327386 0.660905 0.351051 
12.000000 0.657070 1.051026 0.700700 1.344595 0.567421 0.609840 1.310671 0.710994 0.373868 
12.000000 0.660304 1.015611 0.708258 1.267968 0.567178 0.596659 1.246898 0.706906 0.385819 
12.000000 0.636948 0.928034 0.615961 1.274534 0.552158 0.571680 1.195705 0.692827 0.363177 
12.000000 0.665770 0.962527 0.737694 1.275621 0.572524 0.635274 1.244583 0.693191 0.394848 
12.000000 0.493641 1.023993 0.655460 1.363954 0.428145 0.509017 1.363690 0.591964 0.267607 
12.000000 0.492929 1.032836 0.594024 1.331684 0.422863 0.431851 1.356826 0.586641 0.252620 
12.000000 0.513097 1.179218 0.741477 1.294226 0.507789 0.547470 1.346894 0.725324 0.357533 
12.000000 0.456848 0.991309 0.671994 1.133795 0.467106 0.506186 1.103579 0.632559 0.334954 
12.000000 0.590287 0.972176 0.602707 1.403811 0.506551 0.548114 1.403909 0.657868 0.327741 
12.000000 0.653752 1.124087 0.744088 1.242325 0.529195 0.568597 1.284356 0.668220 0.369219 
12.000000 0.608979 0.953335 0.638699 1.312048 0.517229 0.566365 1.317432 0.668511 0.343338 
13.000000 0.693100 0.593713 0.473555 1.243028 0.353224 0.416512 1.266431 0.436224 0.284288 
13.000000 0.645405 0.513871 0.412441 1.201291 0.294525 0.358264 1.221275 0.365740 0.238265 
13.000000 0.708809 0.597828 0.479263 1.317303 0.370118 0.428764 1.336840 0.456392 0.297055 
13.000000 0.625893 0.562190 0.421308 1.503063 0.265946 0.343297 1.596662 0.348574 0.192847 
13.000000 0.708478 0.636281 0.519549 1.292496 0.383975 0.476387 1.282976 0.461359 0.324575 
13.000000 0.670860 0.541091 0.459119 1.174058 0.317441 0.390896 1.210876 0.384838 0.262892 
13.000000 0.683277 0.636088 0.499387 1.354973 0.342767 0.433859 1.348138 0.422115 0.269158 
13.000000 0.683277 0.636088 0.499387 1.354973 0.342767 0.433859 1.348138 0.422115 0.269158 
13.000000 0.489406 0.552013 0.480951 1.150743 0.287526 0.383823 1.145592 0.419293 0.245619 
13.000000 0.557401 0.485244 0.427927 1.315954 0.260056 0.343907 1.142180 0.362709 0.194114 
13.000000 0.638478 0.554707 0.431818 1.225011 0.301174 0.370428 1.270089 0.381807 0.240734 
13.000000 0.620926 0.493602 0.387191 1.144991 0.271948 0.328451 1.146997 0.327533 0.211523 
13.000000 0.576823 0.501157 0.391425 1.200133 0.235890 0.310446 1.248031 0.306318 0.187583 
13.000000 0.754740 0.679379 0.544045 1.349871 0.395150 0.486507 1.394039 0.477252 0.321722 
13.000000 0.695153 0.630575 0.500325 1.371957 0.353930 0.452202 1.307889 0.416718 0.282163 
13.000000 0.578796 0.511885 0.405108 1.126494 0.288892 0.347861 1.169972 0.372787 0.238326 
13.000000 0.690339 0.608108 0.465321 1.324383 0.350294 0.413775 1.305990 0.431113 0.262072 
13.000000 0.714387 0.633653 0.487985 1.303320 0.377253 0.433950 1.306064 0.466261 0.293110 
13.000000 0.702950 0.628838 0.467441 1.285719 0.379014 0.424442 1.250849 0.459033 0.280047 
13.000000 0.706998 0.640054 0.541351 1.317399 0.371525 0.470404 1.309673 0.446225 0.298676 
13.000000 0.679279 0.519520 0.444671 1.227100 0.308153 0.379975 1.202105 0.355416 0.237555 
13.000000 0.503179 0.544175 0.391357 1.329189 0.235872 0.298284 1.371993 0.324842 0.166736 
13.000000 0.589328 0.589697 0.439542 1.455269 0.278112 0.337001 1.528668 0.368491 0.199352 
13.000000 0.481255 0.612976 0.463136 1.073098 0.273290 0.338052 1.107671 0.378782 0.226994 
13.000000 0.443257 0.450051 0.380103 0.845908 0.269006 0.312981 0.843918 0.334499 0.233818 
13.000000 0.520574 0.371525 0.281542 0.947053 0.230451 0.254780 0.956101 0.282937 0.171232 
13.000000 0.706604 0.660698 0.524082 1.278230 0.349248 0.427550 1.309992 0.428082 0.288006 
13.000000 0.661844 0.564313 0.440148 1.250996 0.341098 0.398954 1.257446 0.421575 0.263484 
14.000000 0.773910 0.552180 0.417674 1.661029 0.277629 0.351708 1.705643 0.363219 0.212245 
14.000000 0.830259 0.763948 0.529690 2.456359 0.283648 0.410592 2.267774 0.371702 0.189816 
14.000000 0.813922 0.680042 0.506025 1.753250 0.355322 0.450406 1.728241 0.449494 0.271108 
14.000000 0.827125 0.637300 0.479048 1.721132 0.317193 0.395989 1.764898 0.405916 0.237214 
14.000000 0.790707 0.659143 0.499091 1.748849 0.334729 0.432969 1.692595 0.423354 0.253810 
14.000000 0.570210 0.563643 0.405735 1.494507 0.234602 0.310098 1.593978 0.391233 0.195862 
14.000000 0.608746 0.513862 0.409646 1.736430 0.233754 0.318221 1.524923 0.345009 0.149832 
14.000000 0.743103 0.576562 0.455243 1.736167 0.290592 0.379881 1.658885 0.353855 0.206723 
14.000000 0.673682 0.426462 0.331998 1.406115 0.211336 0.275875 1.431788 0.276769 0.167963 
14.000000 0.610416 0.549227 0.380655 1.542729 0.246490 0.270127 1.444723 0.340179 0.134009 
14.000000 0.807407 0.659731 0.494071 1.643153 0.383006 0.444958 1.495933 0.465885 0.281478 
14.000000 0.795577 0.676080 0.498529 1.643443 0.379176 0.432739 1.566942 0.479366 0.242333 
14.000000 0.742432 0.512646 0.409315 1.591946 0.267802 0.336569 1.578840 0.332459 0.195628 
14.000000 0.662667 0.565163 0.400812 1.883672 0.246517 0.315586 1.849318 0.333879 0.173899 
14.000000 0.738948 0.679946 0.508293 2.046015 0.289050 0.371044 2.166609 0.396879 0.214448 
14.000000 0.658465 0.660995 0.488526 1.673992 0.291634 0.358870 1.630335 0.394480 0.225487 
14.000000 0.655554 0.579437 0.440194 1.653341 0.280594 0.346405 1.569710 0.370313 0.225272 
14.000000 0.759781 0.542997 0.432791 1.542131 0.273441 0.336986 1.520065 0.340047 0.204174 
15.000000 0.586544 0.629252 0.504053 1.077638 0.371965 0.452617 1.072264 0.451674 0.299451 
15.000000 0.535425 0.537655 0.437907 0.961481 0.320500 0.382330 0.937119 0.382979 0.255945 
15.000000 0.604377 0.633216 0.502212 1.205419 0.379041 0.454408 1.213014 0.469925 0.301977 
15.000000 0.587763 0.630987 0.529940 1.092682 0.374825 0.473528 1.119068 0.461063 0.316135 
15.000000 0.513166 0.549564 0.446100 0.971431 0.309439 0.386305 1.013487 0.391302 0.253298 
15.000000 0.527946 0.604681 0.499963 1.061034 0.334527 0.440549 1.076148 0.422736 0.278312 
15.000000 0.352489 0.512214 0.424700 0.801498 0.261079 0.336263 0.820984 0.383156 0.229239 
15.000000 0.385665 0.487815 0.442101 0.971093 0.250304 0.363231 0.838958 0.361228 0.201267 
15.000000 0.473845 0.507155 0.410489 0.901384 0.294401 0.367334 0.924358 0.366838 0.246807 
15.000000 0.478909 0.556489 0.451587 0.967330 0.282598 0.372321 1.005537 0.358103 0.228282 
15.000000 0.445617 0.539996 0.457962 0.906562 0.271520 0.375875 0.919316 0.341392 0.225897 
15.000000 0.588366 0.634643 0.518060 1.127126 0.370374 0.467871 1.158118 0.451842 0.304991 
15.000000 0.604772 0.681011 0.567426 1.153886 0.393557 0.506287 1.181794 0.488127 0.333237 
15.000000 0.497517 1.017510 0.935232 1.096395 0.498526 0.707170 1.102847 0.644761 0.434017 
15.000000 0.615764 0.652088 0.536422 1.079891 0.405277 0.479790 1.089959 0.501601 0.334960 
15.000000 0.602790 0.620503 0.515813 1.093613 0.391110 0.460883 1.051514 0.468690 0.311372 
15.000000 0.583386 0.596156 0.487331 1.007087 0.377406 0.441163 0.974180 0.454301 0.300177 
15.000000 0.569055 0.660756 0.524977 1.110155 0.367648 0.467938 1.098665 0.448348 0.288388 
15.000000 0.496301 0.532878 0.458275 0.978869 0.293881 0.386116 0.976037 0.352760 0.229846 
15.000000 0.426490 0.536402 0.420268 1.038683 0.264358 0.342433 1.021759 0.347415 0.201082 
15.000000 0.317525 0.401958 0.336010 0.688975 0.213728 0.266833 0.718647 0.282733 0.172110 
15.000000 0.377991 0.613602 0.490393 0.846532 0.295199 0.357617 0.847607 0.387500 0.247318 
15.000000 0.304852 0.509433 0.417691 0.697771 0.251866 0.320716 0.695439 0.335657 0.218754 
15.000000 0.382346 0.386021 0.308145 0.708548 0.228288 0.272871 0.718946 0.284262 0.179635 
15.000000 0.534902 0.582723 0.470799 0.929347 0.335262 0.398088 0.883002 0.388421 0.269300 
15.000000 0.485475 0.520467 0.413837 0.952077 0.305203 0.375289 0.936696 0.380253 0.239763 
16.000000 0.596106 0.817533 0.588875 1.189670 0.458448 0.524873 1.146397 0.572540 0.330572 
16.000000 0.607062 0.929853 0.643169 1.684819 0.417692 0.524826 1.667817 0.557680 0.268425 
16.000000 0.563657 0.796917 0.567369 1.199517 0.409889 0.482339 1.230956 0.522214 0.287845 
16.000000 0.582171 0.874270 0.617941 1.273092 0.448232 0.537647 1.266314 0.571301 0.318225 
16.000000 0.377101 0.742972 0.498888 1.013992 0.334499 0.410942 1.025420 0.532103 0.246333 
16.000000 0.409215 0.611319 0.486851 1.061193 0.308307 0.388072 0.892316 0.440405 0.212442 
16.000000 0.547744 0.834658 0.568599 1.164379 0.394515 0.459398 1.167302 0.492491 0.266808 
16.000000 0.487557 0.704470 0.474925 1.042930 0.337547 0.388950 1.027128 0.429169 0.228168 
16.000000 0.598172 0.931523 0.637710 1.429453 0.453903 0.571767 1.366448 0.567046 0.316494 
16.000000 0.539756 0.882780 0.663769 1.239894 0.432467 0.515620 1.245221 0.618449 0.272697 
16.000000 0.584251 0.786252 0.567100 1.230451 0.454848 0.523277 1.129404 0.550612 0.319218 
16.000000 0.556054 0.790196 0.584700 1.187605 0.399122 0.471613 1.167798 0.480554 0.267471 
16.000000 0.480612 0.752139 0.468724 1.270557 0.356282 0.386725 1.223483 0.469650 0.220772 
16.000000 0.457074 0.919158 0.608156 1.313792 0.351917 0.428522 1.412620 0.508804 0.242843 
16.000000 0.404484 0.816252 0.582420 1.024079 0.359705 0.410290 0.989906 0.478524 0.271020 
16.000000 0.335802 0.781526 0.528633 0.892836 0.317959 0.373964 0.928852 0.448676 0.241045 
16.000000 0.453277 0.799843 0.571273 1.176160 0.324994 0.418238 1.308516 0.452135 0.222381 
16.000000 0.601563 0.780487 0.600912 1.134834 0.439973 0.489154 1.049221 0.516125 0.316400 
16.000000 0.453758 0.755091 0.507356 1.104684 0.347672 0.397866 1.036821 0.447579 0.204164 
17.000000 0.687503 0.840484 0.592839 1.468986 0.493076 0.534874 1.352566 0.610036 0.348746 
17.000000 0.607192 0.935753 0.645423 1.697367 0.417671 0.525756 1.670986 0.558022 0.267954 
17.000000 0.674569 0.862415 0.613031 1.378934 0.479755 0.546381 1.343860 0.591910 0.340356 
17.000000 0.693556 0.893750 0.627136 1.370583 0.484116 0.539099 1.434672 0.618421 0.346062 
17.000000 0.503949 0.818279 0.647554 1.292251 0.404377 0.515651 1.292461 0.606802 0.317781 
17.000000 0.486314 0.613912 0.435049 1.225258 0.311713 0.400416 1.042009 0.448680 0.195818 
17.000000 0.656740 0.860208 0.614015 1.365514 0.449085 0.505042 1.342177 0.548594 0.300911 
17.000000 0.571923 0.705299 0.475792 1.308645 0.385183 0.422921 1.205732 0.489653 0.263824 
17.000000 0.628775 0.791318 0.540987 1.266562 0.408897 0.450402 1.269469 0.515941 0.277675 
17.000000 0.562935 0.779399 0.528644 1.381604 0.362655 0.425430 1.441905 0.466189 0.229571 
17.000000 0.687844 0.951631 0.648495 1.481391 0.499749 0.582080 1.407681 0.603955 0.348999 
17.000000 0.666461 0.849254 0.574300 1.356192 0.466590 0.503867 1.305434 0.587946 0.312329 
17.000000 0.711341 0.967228 0.694921 1.472417 0.518572 0.596601 1.456960 0.657214 0.355065 
17.000000 0.690556 0.913078 0.673884 1.376096 0.505886 0.585356 1.364669 0.640760 0.354037 
17.000000 0.644291 0.823675 0.598359 1.275869 0.458175 0.514432 1.241685 0.560151 0.316988 
17.000000 0.623032 0.772758 0.559696 1.236022 0.407802 0.451270 1.257797 0.508269 0.277355 
17.000000 0.542815 0.816736 0.530505 1.513009 0.357537 0.410949 1.529114 0.486248 0.231960 
17.000000 0.581641 0.831561 0.548908 1.369992 0.395101 0.425055 1.307942 0.504685 0.263762 
17.000000 0.466970 0.916845 0.631681 1.223729 0.379825 0.440946 1.138440 0.526994 0.280751 
17.000000 0.466451 0.916990 0.659434 1.195859 0.399790 0.481660 1.203628 0.557923 0.307857 
17.000000 0.532528 0.856202 0.571864 1.370447 0.339593 0.420079 1.526367 0.473065 0.225862 
17.000000 0.496173 0.710944 0.464736 1.274923 0.370723 0.405665 1.165966 0.476808 0.218093 
18.000000 1.387501 3.229655 2.337155 3.073322 1.374172 1.699029 3.232442 1.935629 1.029381 
18.000000 1.224871 3.111817 2.185382 2.980989 1.225773 1.598287 3.290128 1.745073 0.931698 
18.000000 1.681182 4.811115 3.061930 5.642370 1.645887 1.945263 6.723484 2.956828 1.031694 
18.000000 1.801579 4.333509 3.076559 3.974975 1.605829 1.810257 3.881422 2.111727 0.985564 
18.000000 1.109476 3.132445 2.327530 2.905284 1.167075 1.641316 3.489158 1.763600 0.977185 
18.000000 1.544737 4.229633 2.548635 4.211516 1.355741 1.642125 4.468222 2.017908 0.859381 
18.000000 1.349561 3.049075 1.818790 3.330850 1.262279 1.391475 3.513819 1.776857 0.791111 
18.000000 1.245281 2.599613 1.676731 2.910726 1.130294 1.284046 3.154780 1.557599 0.753327 
18.000000 1.001810 2.177862 1.697236 2.114784 1.000156 1.327877 2.225409 1.327274 0.798546 
18.000000 1.536799 3.721260 2.477866 3.470168 1.339201 1.603221 3.863635 1.893471 0.889002 
18.000000 1.711384 6.772620 3.716666 5.955546 1.320650 1.698963 7.331528 2.140537 0.741674 
18.000000 1.551705 4.388450 2.914237 4.841161 1.420041 1.913974 4.790450 1.983246 0.873629 
18.000000 1.029861 2.762390 2.232272 2.488858 1.040020 1.395943 2.957561 1.679113 0.890242 
18.000000 1.766807 4.884454 3.391484 4.378296 1.769154 2.099074 5.422096 3.044850 1.096248 
18.000000 1.403915 3.087169 2.675406 2.803227 1.408182 1.986232 3.098885 2.305518 1.287435 
18.000000 1.216710 3.303407 2.812473 2.473829 1.261049 1.916007 2.873889 1.936464 1.017696 
18.000000 0.907792 1.859663 1.617357 1.814816 0.943075 1.303936 1.942949 1.275721 0.832502 
18.000000 1.151351 2.192029 1.455304 2.331143 1.029536 1.147899 2.564589 1.368628 0.708970 
18.000000 1.447855 6.581292 4.301659 6.024207 1.335544 1.880919 8.596016 2.461193 0.867940 
18.000000 1.736143 4.443541 3.009626 4.968686 1.505529 1.736049 6.505016 2.734332 1.012428 
18.000000 1.514726 3.422733 2.485679 3.681217 1.309361 1.486809 4.215862 2.112878 0.999849 
18.000000 1.183392 2.505394 1.669263 2.710305 1.115614 1.176966 3.011989 1.618184 0.839286 
18.000000 1.555948 3.116291 1.689171 4.049098 1.178975 1.193879 4.517460 1.774064 0.655843 
18.000000 1.669333 5.452362 3.532969 4.182880 1.364818 1.715686 4.689332 2.046195 0.869206 
18.000000 1.382410 4.326931 3.156674 3.930081 1.417187 2.027503 4.571784 2.464492 1.077480 
19.000000 1.285130 2.473831 1.367840 2.927332 1.062284 1.028401 3.244740 1.524880 0.629083 
19.000000 1.125589 1.678814 1.108525 2.146481 0.910068 0.907505 2.229413 1.165106 0.589875 
19.000000 1.290066 2.513474 1.374485 3.590319 1.070752 0.992628 4.285661 1.724127 0.628437 
19.000000 1.359970 3.708959 1.962111 4.252029 1.105447 1.291394 4.125453 1.524818 0.600365 
19.000000 1.130555 2.110864 1.377929 2.449852 0.974920 1.081374 2.686451 1.326590 0.663090 
19.000000 1.190261 2.005175 1.175538 2.472224 0.936653 0.919765 2.602892 1.211880 0.551678 
19.000000 1.334736 3.148263 1.626661 3.577228 1.078127 1.099434 3.871456 1.584283 0.594584 
19.000000 1.246092 3.420418 1.720517 3.841535 1.239252 1.263205 4.401978 2.404811 0.757748 
19.000000 1.362681 2.682903 1.351362 4.137571 0.958910 0.861973 4.152439 1.675277 0.409061 
19.000000 1.241817 2.039726 1.148285 2.665763 0.972677 0.901593 2.565099 1.187064 0.525026 
19.000000 1.159546 2.176084 1.646493 2.407797 1.059273 1.268421 2.421951 1.308132 0.737846 
19.000000 1.358102 2.798567 1.502704 3.058720 1.022010 1.020997 3.309035 1.385079 0.574811 
19.000000 1.472416 2.780664 1.498267 3.811016 0.942771 0.914553 4.646621 1.483719 0.485594 
19.000000 1.340297 3.365005 1.574583 3.732927 1.007477 1.027219 3.707130 1.379804 0.518999 
19.000000 0.763641 1.657416 1.078916 1.766158 0.650632 0.714925 2.115963 0.983566 0.438642 
19.000000 1.129475 1.859198 1.344790 2.043289 1.022030 1.093003 2.100148 1.310685 0.742471 
19.000000 1.429542 2.827263 2.217097 2.781826 1.320532 1.593762 1.000000 1.000000 1.000000 
19.000000 1.158913 1.701389 0.981022 2.033646 0.943455 0.814997 2.012913 1.201467 0.542090 
19.000000 1.206355 1.991705 1.202888 2.482599 1.006301 1.002520 2.508187 1.295817 0.598100 
19.000000 1.018098 2.171264 1.664681 2.095625 0.963983 1.252731 2.352539 1.331258 0.779033 
19.000000 1.368995 2.178714 0.995595 3.321590 0.922422 0.702004 3.458276 1.340958 0.425459 
19.000000 1.248860 1.752269 1.351095 2.143213 1.083928 1.093868 2.149991 1.327924 0.806387 
19.000000 1.223311 1.891579 1.152423 2.585391 0.900359 0.821452 2.874085 1.294698 0.589418 
19.000000 1.129488 1.639145 1.001870 2.226565 0.899131 0.794020 2.307366 1.173548 0.583983 
19.000000 1.673149 2.382292 1.112414 4.170278 1.069073 0.888069 4.500250 1.597682 0.470972 
19.000000 1.397874 2.969424 1.680888 2.894564 1.015040 0.976599 3.265637 1.422403 0.590844 
19.000000 1.232714 2.087620 1.023949 2.615032 0.957800 0.784443 2.717562 1.315175 0.496751 
20.000000 1.108026 1.738006 0.947035 2.325321 0.833214 0.761306 2.553576 1.147009 0.477153 
20.000000 1.079548 1.546995 0.833158 2.206971 0.762956 0.671550 2.330729 1.008912 0.418252 
20.000000 1.031640 1.755411 0.831665 3.064638 0.755523 0.627764 3.367545 1.173479 0.371032 
20.000000 1.082165 1.599551 0.929963 2.196465 0.793836 0.750168 2.366814 1.057157 0.472475 
20.000000 1.167048 1.815755 1.003914 2.430493 0.834340 0.763489 2.689794 1.125109 0.467817 
20.000000 1.203832 2.170266 1.105782 2.720391 0.852160 0.762493 2.993115 1.201934 0.455001 
20.000000 1.136949 2.848173 1.264334 3.607329 1.016414 0.877938 4.015095 1.916229 0.499590 
20.000000 1.096638 1.268783 0.628579 1.815554 0.827294 0.583103 1.833633 1.036414 0.404900 
20.000000 1.064064 1.549366 0.834805 2.230747 0.766688 0.677581 2.280250 0.988799 0.412356 
20.000000 1.120211 1.673040 0.930163 2.232138 0.819539 0.753703 2.324157 1.043095 0.463418 
20.000000 1.153211 1.975258 1.028535 2.632307 0.836614 0.780317 2.910038 1.148568 0.460732 
20.000000 1.274976 1.839719 0.845092 2.981225 0.753612 0.611109 3.435017 1.047167 0.338409 
20.000000 1.204565 2.536155 1.144645 3.304464 0.845819 0.812823 3.200316 1.125836 0.408171 
20.000000 0.900162 1.660486 0.774891 2.196604 0.632388 0.507505 2.674865 0.958440 0.302900 
20.000000 1.238056 2.152952 1.348446 2.697038 0.907463 0.909627 3.146606 1.405953 0.534645 
20.000000 1.327806 2.985957 2.183906 2.935319 1.137150 1.378395 4.058661 2.239502 0.972177 
20.000000 1.514790 2.531847 1.142746 2.860519 1.035458 0.719391 3.457204 1.936156 0.361428 
20.000000 1.173489 1.736833 0.930646 2.360261 0.901429 0.792360 2.345101 1.137866 0.488585 
20.000000 1.141635 1.696181 0.947152 2.392251 0.786366 0.707918 2.559466 1.017983 0.414681 
20.000000 1.195173 1.983500 0.849148 3.213538 0.756343 0.586457 3.482743 1.087821 0.325801 
20.000000 1.237991 2.092881 1.053432 2.971074 0.859950 0.711787 3.039460 1.173467 0.439810 
20.000000 1.131573 1.792646 0.962655 2.572337 0.800728 0.675686 2.758642 1.154362 0.467170 
20.000000 1.198455 1.870522 1.021144 2.680140 0.865875 0.739402 2.865558 1.205081 0.510684 
20.000000 1.297544 1.930856 0.870387 3.293038 0.768401 0.625625 3.588599 1.047432 0.330886 
20.000000 1.172971 1.837550 1.011018 2.136457 0.838950 0.742261 2.132513 1.029475 0.471634 
20.000000 0.737791 1.126757 0.765823 1.516811 0.640344 0.663035 1.384235 0.785042 0.407721 
21.000000 1.174232 2.571571 2.083003 2.587393 1.121637 1.520689 2.871429 1.594885 0.932801 
21.000000 1.247599 2.516776 1.957778 2.668153 1.185890 1.535838 2.698094 1.518837 0.931937 
21.000000 1.540408 4.284687 3.125322 5.174585 1.444574 2.006815 6.480018 2.607310 1.074752 
21.000000 1.036698 2.257710 1.863115 2.265330 1.051268 1.476282 2.551968 1.470444 0.947303 
21.000000 0.989261 2.230987 1.998535 2.199062 1.051180 1.568110 2.407514 1.424628 0.943273 
21.000000 1.184967 2.778209 2.234647 2.770406 1.266522 1.756229 2.879257 1.730911 1.048888 
21.000000 1.199634 3.838056 3.073683 3.552858 1.407445 2.363770 4.523946 2.886632 1.370092 
21.000000 1.598587 4.547979 3.712754 5.237157 1.236037 1.955973 5.881599 2.429578 0.896078 
21.000000 1.464381 4.149821 2.843667 4.153007 1.248557 1.765833 4.796649 1.879144 0.913946 
21.000000 1.224415 2.311061 1.681968 2.585134 1.056059 1.316846 2.639263 1.331155 0.770887 
21.000000 1.257826 2.026855 1.659169 2.389356 1.062308 1.305493 2.424913 1.290014 0.800335 
21.000000 1.620600 4.566252 3.176494 5.110250 1.167042 1.735134 6.205845 1.964637 0.762132 
21.000000 1.626854 5.157181 3.197017 5.306972 1.327026 1.899927 5.323023 1.991015 0.907869 
21.000000 1.202337 3.201674 2.946678 2.812498 1.278000 1.942184 3.223252 2.047599 1.198403 
21.000000 1.452019 3.813489 3.233330 3.490067 1.276961 1.851412 4.337067 2.140337 1.009111 
21.000000 1.242196 2.837756 2.529784 2.648079 1.253778 1.861823 2.920446 2.039533 1.148044 
21.000000 1.003429 1.992282 1.703119 1.906609 1.021895 1.359610 1.951659 1.377797 0.878286 
21.000000 1.026943 1.710685 1.353113 2.079158 0.849101 1.081338 2.079772 1.092373 0.645888 
21.000000 1.085020 2.043066 1.469450 2.418173 0.909749 1.153136 2.712260 1.274790 0.695739 
21.000000 1.699787 9.932053 7.379203 8.672203 1.409043 2.487580 11.952269 2.787993 0.942321 
21.000000 1.497712 4.595163 3.256538 4.865848 1.283537 1.709913 5.959304 2.243409 0.982204 
21.000000 1.715111 4.062853 3.134974 4.433687 1.403011 1.787893 5.206411 2.441715 1.162318 
21.000000 1.260037 1.671192 1.309038 2.183563 1.059411 1.098724 2.246998 1.338172 0.868811 
21.000000 1.470376 2.687342 1.762402 3.977572 1.042322 1.276462 4.220842 1.487641 0.665116 
21.000000 1.510374 3.692120 2.479125 3.306170 1.181555 1.475893 3.477528 1.610456 0.820330 
21.000000 1.124444 1.696737 1.261936 2.104276 0.957119 1.063202 2.133227 1.243761 0.739484 
22.000000 1.199095 1.905373 1.273237 2.597168 0.884800 1.018686 2.817165 1.217821 0.616711 
22.000000 1.119140 1.789697 1.179552 2.653575 0.788110 0.930169 2.903688 1.102908 0.544676 
22.000000 1.200933 2.022101 1.164976 3.603770 0.844005 0.881648 4.097934 1.387987 0.537507 
22.000000 1.074766 1.532900 1.086121 2.295640 0.743644 0.855002 2.485989 0.982567 0.516411 
22.000000 1.323116 2.405897 1.472984 3.037072 0.876791 1.011571 3.308767 1.181195 0.563098 
22.000000 1.161733 1.847851 1.211790 2.651391 0.823126 0.940288 2.751229 1.104605 0.553181 
22.000000 1.147087 2.416126 1.409942 3.360839 0.951064 1.075589 3.914219 1.820970 0.671778 
22.000000 1.435927 2.030261 1.176502 3.820756 0.807551 0.803213 4.316409 1.578818 0.460048 
22.000000 1.278062 2.129917 1.439505 3.035947 0.862545 0.997677 3.233639 1.133542 0.546679 
22.000000 1.081032 1.490449 1.077438 2.206179 0.741923 0.847441 2.279354 0.927922 0.500353 
22.000000 1.137339 1.593953 1.127195 2.331662 0.736848 0.843585 2.511590 0.967421 0.505065 
22.000000 1.202163 1.874765 1.064835 3.018338 0.701008 0.753624 3.455350 0.994880 0.393944 
22.000000 1.342572 2.705554 1.717408 3.435515 0.901433 1.115554 4.004358 1.310058 0.607625 
22.000000 0.870520 1.572853 0.840907 2.067578 0.561281 0.538700 2.573539 0.945746 0.351446 
22.000000 1.410539 2.836947 1.481587 3.474667 0.893594 0.841975 4.559473 1.552264 0.460653 
22.000000 1.199382 1.761768 1.140659 2.364466 0.857053 0.885497 2.467528 1.139511 0.561650 
22.000000 1.209617 1.745358 1.075078 2.270992 0.895031 0.867404 2.299619 1.189963 0.543473 
22.000000 1.168262 1.817556 1.207959 2.459128 0.820458 0.935102 2.626301 1.116282 0.545198 
22.000000 0.943615 1.213542 0.843466 1.900265 0.607120 0.672883 2.025332 0.799300 0.423379 
22.000000 1.165851 1.301087 0.752178 2.579392 0.687027 0.626949 2.534932 0.903906 0.384758 
22.000000 1.407682 2.244943 1.406005 3.385546 0.891852 0.937770 3.548519 1.305474 0.600538 
22.000000 1.302915 1.944331 1.280726 2.943985 0.843779 0.886386 3.188598 1.248326 0.598476 
22.000000 1.054117 1.650186 1.100453 2.504807 0.735830 0.799668 2.643178 1.058126 0.539793 
22.000000 1.430743 2.191551 1.223583 3.688580 0.813745 0.888901 4.008423 1.165754 0.460228 
22.000000 1.220834 2.046014 1.369321 2.418111 0.812758 0.913516 2.586584 1.076846 0.561581 
22.000000 1.112607 1.547041 0.883700 2.327030 0.739080 0.693189 2.360981 0.986684 0.428198 
23.000000 1.148751 1.565735 1.036536 2.307221 0.754532 0.821720 2.406346 0.996379 0.509935 
23.000000 1.075216 1.363056 0.976143 2.076172 0.720751 0.802447 2.255778 0.949532 0.534529 
23.000000 1.132965 1.702919 0.965651 3.310129 0.738764 0.744727 3.720585 1.151043 0.446496 
23.000000 1.114305 1.467664 1.063068 2.396610 0.720609 0.843915 2.485379 0.917306 0.489800 
23.000000 1.180689 1.621102 1.050838 2.533568 0.725192 0.811011 2.807052 0.986574 0.497549 
23.000000 1.134335 1.603672 1.120990 2.477540 0.752298 0.886034 2.578241 1.009223 0.531353 
23.000000 1.141069 1.913982 1.158965 3.121297 0.836769 0.896938 3.565166 1.519930 0.559684 
23.000000 1.147897 1.422860 0.771396 2.977027 0.632591 0.608937 2.639723 0.967831 0.331211 
23.000000 1.028624 1.292394 0.866876 2.183333 0.629814 0.696368 2.365474 0.860764 0.437372 
23.000000 1.070067 1.318946 0.875757 2.163396 0.656282 0.718752 2.141793 0.808795 0.433692 
23.000000 1.154244 1.426857 1.006439 2.374368 0.699927 0.789598 2.476423 0.883134 0.469014 
23.000000 1.210538 1.629339 0.913393 2.918626 0.645108 0.687398 3.263545 0.885166 0.358677 
23.000000 1.260610 2.319487 1.316658 3.411161 0.754227 0.906977 3.648028 1.050619 0.470684 
23.000000 0.944158 1.371378 0.903974 2.042733 0.593591 0.647377 2.365306 0.854476 0.419820 
23.000000 1.124408 1.490000 1.051125 2.175826 0.779694 0.840855 2.302395 1.027996 0.541879 
23.000000 1.468762 1.857734 1.053734 2.972509 0.867977 0.787388 3.122131 1.326171 0.548471 
23.000000 1.152356 1.498708 0.999809 2.204739 0.793718 0.833478 2.276671 1.071759 0.500717 
23.000000 1.069041 1.411269 0.941026 2.122465 0.689299 0.767318 2.249279 0.913879 0.480596 
23.000000 1.116285 1.512199 1.031671 2.317230 0.714094 0.814466 2.274344 0.878494 0.471574 
23.000000 1.157159 1.705523 0.932770 3.172542 0.641763 0.639941 3.448043 0.927252 0.353158 
23.000000 1.292932 1.824229 1.189100 3.229240 0.764520 0.820953 3.566045 1.122831 0.531399 
23.000000 1.055661 1.643092 1.029419 2.773226 0.693024 0.754291 2.847963 1.003753 0.504762 
23.000000 1.107214 1.304591 0.880898 2.209349 0.678077 0.676679 2.342854 0.919047 0.474573 
23.000000 1.274602 1.490516 0.894781 3.117218 0.640108 0.665921 3.357549 0.855897 0.354036 
23.000000 1.177411 1.831657 1.197385 2.468083 0.717887 0.816372 2.500899 0.919679 0.472328 
23.000000 1.163727 1.538832 0.954942 2.354742 0.699584 0.713489 2.403118 0.924662 0.435599 
24.000000 0.930731 0.989188 0.557554 2.064407 0.486415 0.468298 2.282328 0.680715 0.292654 
24.000000 0.968165 0.998662 0.595569 1.975444 0.523433 0.505611 2.127080 0.701682 0.335093 
24.000000 1.003887 1.098961 0.663764 2.172345 0.574199 0.544654 2.223298 0.741290 0.340813 
24.000000 1.125795 1.608386 0.874467 3.301064 0.589787 0.671862 3.202808 0.805850 0.328725 
24.000000 1.011272 1.150075 0.703864 2.127675 0.563074 0.584194 2.323137 0.756107 0.367882 
24.000000 1.130799 1.378004 0.808929 2.682266 0.589388 0.639735 2.978295 0.808064 0.369614 
24.000000 1.048143 1.204526 0.772129 2.245247 0.583152 0.615160 2.386846 0.790669 0.381726 
24.000000 0.937976 1.105420 0.593313 2.271888 0.543702 0.494522 2.394415 0.848663 0.324893 
24.000000 1.044985 1.226806 0.652972 2.988277 0.523404 0.498741 2.670862 0.836662 0.265821 
24.000000 1.049685 1.151896 0.746192 2.278495 0.569635 0.596064 2.407347 0.738481 0.357474 
24.000000 1.012343 1.116346 0.657213 2.266941 0.514686 0.535943 2.506085 0.707223 0.323140 
24.000000 1.058918 1.159770 0.694344 2.202973 0.537426 0.550342 2.196978 0.673413 0.325838 
24.000000 0.998611 1.078088 0.666613 1.971355 0.536598 0.544900 2.137310 0.706937 0.351142 
24.000000 1.019031 1.130925 0.692168 2.157778 0.563051 0.592306 2.074764 0.696076 0.351736 
24.000000 0.964691 1.039042 0.639374 1.931787 0.534653 0.521532 1.887961 0.682465 0.333255 
24.000000 1.011019 1.126908 0.680574 2.019687 0.565154 0.550366 2.203091 0.795307 0.370122 
24.000000 1.010831 1.064103 0.659902 1.968957 0.557172 0.537248 2.091348 0.752758 0.355260 
24.000000 1.031650 0.982721 0.649016 1.729556 0.601800 0.539333 1.714046 0.741243 0.344575 
24.000000 0.918304 0.898844 0.609304 1.762141 0.500130 0.503409 1.719687 0.614389 0.321887 
24.000000 0.941850 0.929752 0.634074 1.795729 0.517237 0.542496 1.851807 0.656329 0.356488 
24.000000 0.972701 1.153516 0.625325 2.631655 0.465080 0.461548 2.762510 0.661912 0.251591 
24.000000 1.075590 1.492170 0.765479 2.944400 0.562243 0.528173 3.226822 0.825402 0.321735 
24.000000 1.129390 1.341437 0.762148 2.644394 0.592927 0.557163 2.746375 0.831690 0.384982 
24.000000 0.995310 1.030052 0.623771 2.149424 0.542717 0.503755 2.162815 0.740495 0.337195 
24.000000 0.994115 1.088273 0.617816 2.208644 0.480148 0.487991 2.342531 0.644892 0.289717 
24.000000 1.056211 1.267383 0.778007 2.120432 0.529310 0.535386 2.385225 0.721011 0.341249 
24.000000 1.025783 1.235111 0.597595 2.547452 0.628457 0.511335 2.749023 0.955733 0.297336 
25.000000 0.202894 0.396271 0.359859 0.379888 0.241387 0.328599 0.368741 0.293003 0.216087 
25.000000 0.169655 0.377609 0.341418 0.337673 0.205466 0.295193 0.351910 0.261823 0.188239 
25.000000 0.249179 0.437499 0.430824 0.457629 0.291395 0.392313 0.431700 0.338781 0.259077 
25.000000 0.159892 0.420696 0.392259 0.397335 0.205358 0.326860 0.408651 0.267679 0.177882 
25.000000 0.192969 0.432616 0.404380 0.394939 0.238614 0.349555 0.404881 0.296594 0.213369 
25.000000 0.199495 0.462226 0.409764 0.398023 0.242082 0.357562 0.433886 0.315080 0.225252 
25.000000 0.166293 0.411408 0.362981 0.368073 0.211875 0.314844 0.368926 0.273543 0.186680 
25.000000 0.159622 0.397565 0.402202 0.360714 0.217916 0.336531 0.360260 0.311561 0.217824 
25.000000 0.137352 0.381479 0.387183 0.367358 0.175239 0.295558 0.340876 0.269060 0.160118 
25.000000 0.186530 0.408746 0.363871 0.369957 0.225509 0.320548 0.385433 0.290316 0.210018 
25.000000 0.156638 0.389503 0.343015 0.330565 0.196970 0.286443 0.343056 0.252133 0.172977 
25.000000 0.144992 0.366745 0.319518 0.296552 0.179121 0.258893 0.296118 0.222838 0.154185 
25.000000 0.159455 0.448349 0.410559 0.368452 0.189944 0.315387 0.409908 0.256646 0.169525 
25.000000 0.219474 0.444667 0.429004 0.408149 0.262605 0.373807 0.394681 0.308155 0.231367 
25.000000 0.180310 0.438323 0.390989 0.379217 0.219314 0.325120 0.391598 0.289116 0.206466 
25.000000 0.421777 1.025195 0.828195 0.967164 0.493655 0.675893 0.933961 0.630128 0.384682 
25.000000 0.207572 0.441718 0.410267 0.409514 0.248756 0.357419 0.421132 0.320986 0.229314 
25.000000 0.218068 0.444732 0.434604 0.411410 0.257013 0.371793 0.401175 0.319030 0.222728 
25.000000 0.184834 0.391157 0.358886 0.343515 0.219526 0.312258 0.349951 0.277972 0.203246 
25.000000 0.153773 0.385996 0.353239 0.325050 0.191656 0.287034 0.355550 0.255355 0.176701 
25.000000 0.168830 0.415909 0.384440 0.386646 0.207658 0.310885 0.390642 0.267771 0.185614 
25.000000 0.184965 0.488774 0.411182 0.443943 0.234628 0.333194 0.436243 0.304678 0.207123 
25.000000 0.181944 0.506579 0.426473 0.417571 0.235637 0.322176 0.435516 0.325886 0.214766 
25.000000 0.183269 0.402166 0.360527 0.369806 0.235977 0.310450 0.354853 0.296701 0.215428 
25.000000 0.212963 0.473602 0.420275 0.438290 0.260182 0.378020 0.436499 0.320511 0.233846 
25.000000 0.204490 0.483748 0.435108 0.383865 0.241239 0.336546 0.403088 0.303226 0.219111 
25.000000 0.221627 0.419458 0.387079 0.418180 0.260663 0.343202 0.394478 0.313137 0.234865 
25.000000 0.221627 0.419458 0.387079 0.418180 0.260663 0.343202 0.394478 0.313137 0.234865 
26.000000 0.469059 0.525335 0.458139 0.727616 0.353257 0.423482 0.725054 0.411203 0.308859 
26.000000 0.331944 0.485998 0.413430 0.647927 0.265982 0.355171 0.654576 0.329997 0.225616 
26.000000 0.393849 0.504244 0.423628 0.752250 0.306311 0.383409 0.760070 0.378921 0.257624 
26.000000 0.299818 0.636402 0.541317 0.796351 0.273439 0.427460 0.814668 0.367410 0.225446 
26.000000 0.417311 0.596806 0.525515 0.815679 0.344807 0.473105 0.809355 0.414916 0.297553 
26.000000 0.333879 0.547973 0.465707 0.678104 0.285337 0.394518 0.743195 0.376888 0.251178 
26.000000 0.342189 0.499870 0.427904 0.668032 0.284385 0.382573 0.677679 0.354129 0.249200 
26.000000 0.258893 0.535533 0.545193 0.604705 0.292409 0.442380 0.587028 0.418074 0.268326 
26.000000 0.278722 0.526744 0.512264 0.726714 0.260075 0.415021 0.651155 0.374753 0.225607 
26.000000 0.362554 0.503675 0.454079 0.691417 0.291922 0.390496 0.684454 0.350346 0.253120 
26.000000 0.263203 0.464913 0.388105 0.560392 0.241439 0.329661 0.533829 0.296576 0.198621 
26.000000 0.346247 0.517728 0.468026 0.640029 0.292573 0.394789 0.624757 0.340023 0.243475 
26.000000 0.406098 0.586618 0.491644 0.794108 0.336578 0.448636 0.781017 0.404093 0.283163 
26.000000 0.369783 0.526298 0.445211 0.699388 0.301495 0.394639 0.697892 0.368083 0.258625 
26.000000 0.291484 0.643327 0.538356 0.692299 0.285963 0.399842 0.782278 0.405792 0.243297 
26.000000 0.402232 0.547003 0.466384 0.744287 0.327886 0.420542 0.733053 0.396981 0.285107 
26.000000 0.241014 0.389111 0.350608 0.491457 0.204959 0.276615 0.528631 0.291635 0.179292 
26.000000 0.391046 0.522175 0.489818 0.704295 0.324329 0.445133 0.683734 0.391825 0.267270 
26.000000 0.358316 0.500121 0.440645 0.654257 0.290979 0.385693 0.654983 0.353100 0.251004 
26.000000 0.286531 0.449393 0.396527 0.562518 0.229447 0.324847 0.611886 0.302867 0.206185 
26.000000 0.226293 0.464747 0.398105 0.562130 0.205177 0.301965 0.598704 0.278789 0.174091 
26.000000 0.322854 0.586622 0.473876 0.769638 0.286449 0.379403 0.774290 0.374441 0.242886 
26.000000 0.280581 0.541874 0.442108 0.632396 0.270827 0.339120 0.640957 0.360876 0.227402 
26.000000 0.252094 0.515241 0.413418 0.558411 0.255827 0.335535 0.576846 0.355741 0.216097 
26.000000 0.239602 0.442167 0.359153 0.540425 0.202295 0.287344 0.579371 0.262580 0.164435 
26.000000 0.351408 0.542035 0.472350 0.650861 0.270813 0.360589 0.702278 0.343646 0.237044 
26.000000 0.361758 0.463453 0.390713 0.643082 0.289862 0.345189 0.659568 0.358236 0.244818 
